{
  "urn" : "local:ferdinando.villa:im.examples.landcover:luc.suitabilitymodel.simple",
  "version" : "0.0.1",
  "adapterType" : "weka",
  "localPath" : "im.examples.landcover/resources/luc.suitabilitymodel.simple",
  "geometry" : "T1(1){period=[1.577664E12 1.6092864E12],tscope=1.0,ttype=LOGICAL,tunit=YEAR}S2(702,455){bbox=[-7.405508082757809 -2.2757309116586275 41.37041116258419 43.86425862069035],proj=EPSG:4326,shape=00000000030000000100000005C01D9F3D82C6D5744044AF69A20AAFACC00234B268808F814044AF69A20AAFACC00234B268808F814045EEA006C79358C01D9F3D82C6D5744045EEA006C79358C01D9F3D82C6D5744044AF69A20AAFAC}",
  "projectName" : "im.examples.landcover",
  "localName" : "luc.suitabilitymodel.simple",
  "type" : "CONCEPT",
  "resourceTimestamp" : 1577702562513,
  "metadata" : { },
  "parameters" : {
    "predicted.range" : "[3.0,50.0]",
    "predictor.slope.discretizer.file" : "d_slope5259505665480790699.bin",
    "predictor.human_individual_count.index" : "4",
    "predictor.elevation.discretizer.cutpoints" : "[245.4, 496.8, 748.2, 999.6, 1251.0, 1502.4, 1753.8, 2005.2, 2256.6]",
    "predictor.atmospheric_temperature.discretizer" : "weka.filters.unsupervised.attribute.Discretize",
    "predictor.slope.discretizer.cutpoints" : "[6.368074035644531, 12.736148071289062, 19.10422210693359, 25.472296142578124, 31.840370178222656, 38.20844421386718, 44.576518249511714, 50.94459228515625, 57.31266632080078]",
    "predictor.slope.index" : "2",
    "submitNodata" : "true",
    "classifier.file" : "classifier4065815337952141826.bin",
    "predictor.elevation.range" : "[-6.0,2508.0]",
    "predictor.elevation.index" : "3",
    "instances.file.raw" : "rawinstances6662042771317377255.arff",
    "predictor.elevation.discretizer" : "weka.filters.unsupervised.attribute.Discretize",
    "predictor.atmospheric_temperature.range" : "[2.191666603088379,15.050000190734863]",
    "predicted.index" : "1",
    "predictor.elevation.discretizer.options" : "-R 3 -Y",
    "classifier" : "weka.classifiers.bayes.BayesNet",
    "predicted.discretizer.options" : "-R 1 -Y",
    "model" : "examples.landcover.suitability.simple.land-cover-type-learner",
    "predictor.slope.range" : "[0.0,63.68074035644531]",
    "classifier.options" : " -Q weka.classifiers.bayes.net.search.local.K2 -- -P 3 -E weka.classifiers.bayes.net.estimate.SimpleEstimator -- -A 1.0",
    "predicted.discretizer" : "weka.filters.unsupervised.attribute.Discretize",
    "predictor.human_individual_count.discretizer.options" : "-R 4 -Y",
    "predicted.name" : "predicted_land_cover_type",
    "instances.file" : "instances1083305014642812370.arff",
    "key.predicted" : "key_predicted5896666922212484120.dat",
    "predictor.atmospheric_temperature.index" : "5",
    "predictor.atmospheric_temperature.discretizer.cutpoints" : "[3.4774999618530273, 4.763333320617676, 6.049166679382324, 7.335000038146973, 8.620833396911621, 9.90666675567627, 11.192500114440918, 12.478333473205566, 13.764166831970215]",
    "predicted.discretizer.file" : "d_predicted_land_cover_type6339403096222643722.bin",
    "classifier.probabilistic" : "true",
    "predictor.atmospheric_temperature.discretizer.file" : "d_atmospheric_temperature2639454958945653811.bin",
    "predictor.slope.discretizer" : "weka.filters.unsupervised.attribute.Discretize",
    "predictor.slope.discretizer.options" : "-R 2 -Y",
    "predictor.elevation.discretizer.file" : "d_elevation2447775933276323308.bin",
    "predictor.human_individual_count.discretizer.cutpoints" : "[1626.1477561946242, 3252.2955098466105, 4878.443263498597, 6504.591017150583, 8130.738770802569, 9756.886524454556, 11383.034278106541, 13009.182031758528, 14635.329785410515]",
    "wekaVersion" : "3.8.3",
    "predictor.human_individual_count.range" : "[2.5426379579585046E-6,16261.4775390625]",
    "predictor.atmospheric_temperature.discretizer.options" : "-R 5 -Y",
    "predictor.human_individual_count.discretizer.file" : "d_human_individual_count8192391738366614675.bin",
    "predictor.human_individual_count.discretizer" : "weka.filters.unsupervised.attribute.Discretize"
  },
  "localPaths" : [ "im.examples.landcover/resources/luc.suitabilitymodel.simple/key_predicted5896666922212484120.dat", "im.examples.landcover/resources/luc.suitabilitymodel.simple/d_predicted_land_cover_type6339403096222643722.bin", "im.examples.landcover/resources/luc.suitabilitymodel.simple/d_slope5259505665480790699.bin", "im.examples.landcover/resources/luc.suitabilitymodel.simple/d_elevation2447775933276323308.bin", "im.examples.landcover/resources/luc.suitabilitymodel.simple/d_human_individual_count8192391738366614675.bin", "im.examples.landcover/resources/luc.suitabilitymodel.simple/d_atmospheric_temperature2639454958945653811.bin", "im.examples.landcover/resources/luc.suitabilitymodel.simple/instances1083305014642812370.arff", "im.examples.landcover/resources/luc.suitabilitymodel.simple/rawinstances6662042771317377255.arff", "im.examples.landcover/resources/luc.suitabilitymodel.simple/classifier4065815337952141826.bin" ],
  "history" : [ ],
  "notifications" : [ ],
  "attributes" : [ ],
  "spatialExtent" : null,
  "dependencies" : [ {
    "name" : "slope",
    "type" : "NUMBER",
    "key" : true,
    "optional" : true,
    "exampleValue" : null
  }, {
    "name" : "elevation",
    "type" : "NUMBER",
    "key" : true,
    "optional" : true,
    "exampleValue" : null
  }, {
    "name" : "human_individual_count",
    "type" : "NUMBER",
    "key" : true,
    "optional" : true,
    "exampleValue" : null
  }, {
    "name" : "atmospheric_temperature",
    "type" : "NUMBER",
    "key" : true,
    "optional" : true,
    "exampleValue" : null
  } ],
  "outputs" : {
    "name" : "uncertainty",
    "type" : "NUMBER",
    "key" : false,
    "optional" : true,
    "exampleValue" : null
  },
  "exportFormats" : {
    "bif" : "BIF bayesian network (.bif)",
    "xdsl" : "GENIE bayesian network (.xdsl)",
    "arff" : "Training dataset (ARFF)",
    "arff#raw" : "Raw training dataset (ARFF)",
    "model" : "WEKA Classifier (.model)",
    "model#predicted" : "WEKA discretizer for the predicted variable (.model)",
    "model#slope" : "WEKA Discretizer for Slope (.model)",
    "model#elevation" : "WEKA Discretizer for Elevation (.model)",
    "model#human_individual_count" : "WEKA Discretizer for Human individual count (.model)",
    "model#atmospheric_temperature" : "WEKA Discretizer for Atmospheric temperature (.model)"
  }
}